Practical Tidyverse Examples
…
Use dplyr::read_delim() to read in the .ixs files as a tibble:

# Read in first pass times for SUB items
fp_rcs <- read_delim("./fp-rcs.ixs", delim = ",", col_names = TRUE)

# Read in first pass times for OBJ items
fp_rco <- read_delim("./fp-rco.ixs", delim = ",", col_names = TRUE)

Print the newly created data frames:

# First pass times for SUB items
fp_rcs

# A tibble: 2,058 x 6
     seq  subj  item  cond region datum
   <dbl> <dbl> <dbl> <dbl>  <dbl> <dbl>
 1    26     1     1     5      1   318
 2    26     1     1     5      2   311
 3    26     1     1     5      3   488
 4    26     1     1     5      4   350
 5    26     1     1     5      5   171
 6    26     1     1     5      6   356
 7    26     1     1     5      7   696
 8    27     1     2     6      1   470
 9    27     1     2     6      2   133
10    27     1     2     6      3   405
#  with 2,048 more rows

# First pass times for OBJ items
fp_rco

# A tibble: 2,093 x 6
     seq  subj  item  cond region datum
   <dbl> <dbl> <dbl> <dbl>  <dbl> <dbl>
 1   133     1     3     7      1   323
 2   133     1     3     7      2   417
 3   133     1     3     7      3    NA
 4   133     1     3     7      4   216
 5   133     1     3     7      5   527
 6   133     1     3     7      6   218
 7   133     1     3     7      7    NA
 8    47     1     7     7      1   300
 9    47     1     7     7      2   205
10    47     1     7     7      3   184
#  with 2,083 more rows
…
# If `cond` is `7`, then the item is an SRC, else an ORC.
fp_rco <- read_delim("./fp-rco.ixs", delim = ",", col_names = TRUE) %>%
  mutate(pos = "OBJ",
         ext = if_else(cond == 7, "SRC", "ORC"))

3.4 Combining data frames

Combine the fp_rcs and fp_rco data frames into a single data frame with dplyr::bind_rows():

fp <- bind_rows(fp_rcs, fp_rco)

fp

# A tibble: 4,151 x 8
     seq  subj  item  cond region datum pos   ext  
   <dbl> <dbl> <dbl> <dbl>  <dbl> <dbl> <chr> <chr>
 1    26     1     1     5      1   318 SUB   SRC  
 2    26     1     1     5      2   311 SUB   SRC  
 3    26     1     1     5      3   488 SUB   SRC  
 4    26     1     1     5      4   350 SUB   SRC  
 5    26     1     1     5      5   171 SUB   SRC  
 6    26     1     1     5      6   356 SUB   SRC  
 7    26     1     1     5      7   696 SUB   SRC  
 8    27     1     2     6      1   470 SUB   ORC  
 9    27     1     2     6      2   133 SUB   ORC  
10    27     1     2     6      3   405 SUB   ORC  
#  with 4,141 more rows
…
fp

# A tibble: 4,151 x 10
     seq  subj  item  cond region datum pos   ext   cond2   region2  
   <dbl> <dbl> <dbl> <dbl>  <dbl> <dbl> <fct> <fct> <fct>   <chr>    
 1    26     1     1     5      1   318 SUB   SRC   SUB-SRC intro    
 2    26     1     1     5      2   311 SUB   SRC   SUB-SRC msub     
 3    26     1     1     5      3   488 SUB   SRC   SUB-SRC RC       
 4    26     1     1     5      4   350 SUB   SRC   SUB-SRC spillover
 5    26     1     1     5      5   171 SUB   SRC   SUB-SRC mverb    
 6    26     1     1     5      6   356 SUB   SRC   SUB-SRC mobj     
 7    26     1     1     5      7   696 SUB   SRC   SUB-SRC final    
 8    27     1     2     6      1   470 SUB   ORC   SUB-ORC intro    
 9    27     1     2     6      2   133 SUB   ORC   SUB-ORC msub     
10    27     1     2     6      3   405 SUB   ORC   SUB-ORC RC       
#  with 4,141 more rows
…
First pass times should be winsorized by experimental condition and region, because the different conditons and regions differ in length and difficulty.

Use group_by(), mutate(), and winsor() to winsorize by group:

# Winsorize first pass times by condition and region
fp <- fp %>%  
  group_by(cond2, region2) %>% 
  mutate(win = winsor(datum, trim = 0.1, na.rm = TRUE)) %>% 
  ungroup()

fp

# A tibble: 4,151 x 11
     seq  subj  item  cond region datum pos   ext   cond2   region2     win
   <dbl> <dbl> <dbl> <dbl>  <dbl> <dbl> <fct> <fct> <fct>   <chr>     <dbl>
 1    26     1     1     5      1   318 SUB   SRC   SUB-SRC intro      318 
 2    26     1     1     5      2   311 SUB   SRC   SUB-SRC msub       311 
 3    26     1     1     5      3   488 SUB   SRC   SUB-SRC RC         488 
 4    26     1     1     5      4   350 SUB   SRC   SUB-SRC spillover  350 
 5    26     1     1     5      5   171 SUB   SRC   SUB-SRC mverb      180.
 6    26     1     1     5      6   356 SUB   SRC   SUB-SRC mobj       356 
 7    26     1     1     5      7   696 SUB   SRC   SUB-SRC final      696 
 8    27     1     2     6      1   470 SUB   ORC   SUB-ORC intro      470 
 9    27     1     2     6      2   133 SUB   ORC   SUB-ORC msub       189 
10    27     1     2     6      3   405 SUB   ORC   SUB-ORC RC         405 
#  with 4,141 more rows
…
We should look at the average first pass time (with standard errors) for each condition and region group.

Install and load the plotrix() package for the the plotrix::std.error() function:

install.packages("plotrix")
library(plotrix)

Use group_by(), summarize(), and std.error() to calculate mean first pass times with standard errors:

# Calculate mean first pass times by condition and region
fp %>% 
  group_by(region2, cond2) %>% 
  summarize(avg = mean(win, na.rm = T), ste = std.error(win, na.rm = T))

# A tibble: 28 x 4
# Groups:   region2 [7]
   region2 cond2     avg   ste
   <chr>   <fct>   <dbl> <dbl>
 1 final   SUB-SRC  585. 26.7 
 2 final   SUB-ORC  580. 23.2 
 3 final   OBJ-SRC  545. 22.1 
 4 final   OBJ-ORC  545. 22.2 
 5 intro   SUB-SRC  523. 19.7 
 6 intro   SUB-ORC  567. 20.5 
 7 intro   OBJ-SRC  522. 21.0 
 8 intro   OBJ-ORC  526. 19.7 
 9 mobj    SUB-SRC  308.  8.86
10 mobj    SUB-ORC  312. 10.0 
#  with 18 more rows
…
Create right-bounded times data frame:

# Right-bounded times
rb <- combine_sub_obj("./rb-rcs.ixs", "./rb-rco.ixs")

rb

# A tibble: 4,151 x 10
     seq  subj  item  cond region datum pos   ext   cond2   region2  
   <dbl> <dbl> <dbl> <dbl>  <dbl> <dbl> <fct> <fct> <fct>   <chr>    
 1    26     1     1     5      1   318 SUB   SRC   SUB-SRC intro    
 2    26     1     1     5      2   311 SUB   SRC   SUB-SRC msub     
 3    26     1     1     5      3   488 SUB   SRC   SUB-SRC RC       
 4    26     1     1     5      4   350 SUB   SRC   SUB-SRC spillover
 5    26     1     1     5      5   171 SUB   SRC   SUB-SRC mverb    
 6    26     1     1     5      6   356 SUB   SRC   SUB-SRC mobj     
 7    26     1     1     5      7  1271 SUB   SRC   SUB-SRC final    
 8    27     1     2     6      1   470 SUB   ORC   SUB-ORC intro    
 9    27     1     2     6      2   133 SUB   ORC   SUB-ORC msub     
10    27     1     2     6      3   405 SUB   ORC   SUB-ORC RC       
#  with 4,141 more rows

Create second pass times data frame:

# Second pass times
sp <- combine_sub_obj("./sp-rcs.ixs", "./sp-rco.ixs")

sp

# A tibble: 4,151 x 10
     seq  subj  item  cond region datum pos   ext   cond2   region2  
   <dbl> <dbl> <dbl> <dbl>  <dbl> <dbl> <fct> <fct> <fct>   <chr>    
 1    26     1     1     5      1     0 SUB   SRC   SUB-SRC intro    
 2    26     1     1     5      2     0 SUB   SRC   SUB-SRC msub     
 3    26     1     1     5      3   456 SUB   SRC   SUB-SRC RC       
 4    26     1     1     5      4   436 SUB   SRC   SUB-SRC spillover
 5    26     1     1     5      5   466 SUB   SRC   SUB-SRC mverb    
 6    26     1     1     5      6   373 SUB   SRC   SUB-SRC mobj     
 7    26     1     1     5      7     0 SUB   SRC   SUB-SRC final    
 8    27     1     2     6      1     0 SUB   ORC   SUB-ORC intro    
 9    27     1     2     6      2   249 SUB   ORC   SUB-ORC msub     
10    27     1     2     6      3   944 SUB   ORC   SUB-ORC RC       
#  with 4,141 more rows
…
Winsorize right-bounded times:

# Winsorize right-bounded times by condition and region
rb <- rb %>% 
  win_datum()

rb

# A tibble: 4,151 x 11
     seq  subj  item  cond region datum pos   ext   cond2   region2     win
   <dbl> <dbl> <dbl> <dbl>  <dbl> <dbl> <fct> <fct> <fct>   <chr>     <dbl>
 1    26     1     1     5      1   318 SUB   SRC   SUB-SRC intro      318 
 2    26     1     1     5      2   311 SUB   SRC   SUB-SRC msub       311 
 3    26     1     1     5      3   488 SUB   SRC   SUB-SRC RC         488 
 4    26     1     1     5      4   350 SUB   SRC   SUB-SRC spillover  350 
 5    26     1     1     5      5   171 SUB   SRC   SUB-SRC mverb      187.
 6    26     1     1     5      6   356 SUB   SRC   SUB-SRC mobj       356 
 7    26     1     1     5      7  1271 SUB   SRC   SUB-SRC final     1271 
 8    27     1     2     6      1   470 SUB   ORC   SUB-ORC intro      470 
 9    27     1     2     6      2   133 SUB   ORC   SUB-ORC msub       189 
10    27     1     2     6      3   405 SUB   ORC   SUB-ORC RC         606.
#  with 4,141 more rows

Ssecond pass times are generally not winsorized, so do not call win_datum() on the sp data frame.

6.2.2 mean_summary()

Section 4.2 Means and standard errors described calculating mean first pass times:

fp %>% 
  group_by(region2, cond2) %>% 
  summarize(avg = mean(win, na.rm = T), ste = std.error(win, na.rm = T))

# A tibble: 28 x 4
# Groups:   region2 [7]
   region2 cond2     avg   ste
   <chr>   <fct>   <dbl> <dbl>
 1 final   SUB-SRC  585. 26.7 
 2 final   SUB-ORC  580. 23.2 
 3 final   OBJ-SRC  545. 22.1 
 4 final   OBJ-ORC  545. 22.2 
 5 intro   SUB-SRC  523. 19.7 
 6 intro   SUB-ORC  567. 20.5 
 7 intro   OBJ-SRC  522. 21.0 
 8 intro   OBJ-ORC  526. 19.7 
 9 mobj    SUB-SRC  308.  8.86
10 mobj    SUB-ORC  312. 10.0 
#  with 18 more rows
…
mean_summary() takes 2 arguments:

df: the data frame

column: the value to calculate the mean of(datum for unwinsorized data, win for winsorized data)

Calculate the mean right-bounded times:

# Average right-bounded times (winsorized)
rb %>% 
  mean_summary(win)

# A tibble: 28 x 4
   cond2   region2     avg   ste
   <fct>   <chr>     <dbl> <dbl>
 1 SUB-SRC final      838.  32.8
 2 SUB-SRC intro      531.  19.8
 3 SUB-SRC mobj       343.  11.2
 4 SUB-SRC msub       340.  11.5
 5 SUB-SRC mverb      341.  11.6
 6 SUB-SRC RC         833.  21.6
 7 SUB-SRC spillover  528.  17.9
 8 SUB-ORC final      810   32.2
 9 SUB-ORC intro      570.  20.4
10 SUB-ORC mobj       375.  14.8
#  with 18 more rows

Calculate the mean second pass times:

# Average second past times (not winsorized)
sp %>% 
  mean_summary(datum)

# A tibble: 28 x 4
   cond2   region2     avg   ste
   <fct>   <chr>     <dbl> <dbl>
 1 SUB-SRC final      31.3  15.2
 2 SUB-SRC intro     201.   29.3
 3 SUB-SRC mobj      233.   26.1
 4 SUB-SRC msub      280.   28.0
 5 SUB-SRC mverb     326.   38.4
 6 SUB-SRC RC        769.   78.1
 7 SUB-SRC spillover 454.   50.8
 8 SUB-ORC final      33.0  13.6
 9 SUB-ORC intro     238.   36.6
10 SUB-ORC mobj      286.   35.1
#  with 18 more rows
…
